module goguess

go 1.18

require (
	fyne.io/fyne/v2 v2.5.1
	github.com/stretchr/testify v1.9.0
	github.com/wcharczuk/go-chart/v2 v2.1.2
)

require (
	fyne.io/systray v1.11.0 // indirect
	github.com/BurntSushi/toml v1.4.0 // indirect
	github.com/davecgh/go-spew v1.1.1 // indirect
	github.com/fredbi/uri v1.1.0 // indirect
	github.com/fsnotify/fsnotify v1.7.0 // indirect
	github.com/fyne-io/gl-js v0.0.0-20220119005834-d2da28d9ccfe // indirect
	github.com/fyne-io/glfw-js v0.0.0-20240101223322-6e1efdc71b7a // indirect
	github.com/fyne-io/image v0.0.0-20220602074514-4956b0afb3d2 // indirect
	github.com/go-gl/gl v0.0.0-20211210172815-726fda9656d6 // indirect
	github.com/go-gl/glfw/v3.3/glfw v0.0.0-20240506104042-037f3cc74f2a // indirect
	github.com/go-text/render v0.1.1-0.20240418202334-dd62631dae9b // indirect
	github.com/go-text/typesetting v0.1.0 // indirect
	github.com/godbus/dbus/v5 v5.1.0 // indirect
	github.com/golang/freetype v0.0.0-20170609003504-e2365dfdc4a0 // indirect
	github.com/gopherjs/gopherjs v1.17.2 // indirect
	github.com/jeandeaual/go-locale v0.0.0-20240223122105-ce5225dcaa49 // indirect
	github.com/jsummers/gobmp v0.0.0-20151104160322-e2ba15ffa76e // indirect
	github.com/nicksnyder/go-i18n/v2 v2.4.0 // indirect
	github.com/pmezard/go-difflib v1.0.0 // indirect
	github.com/rymdport/portal v0.2.6 // indirect
	github.com/srwiley/oksvg v0.0.0-20221011165216-be6e8873101c // indirect
	github.com/srwiley/rasterx v0.0.0-20220730225603-2ab79fcdd4ef // indirect
	github.com/yuin/goldmark v1.7.1 // indirect
	golang.org/x/image v0.18.0 // indirect
	golang.org/x/mobile v0.0.0-20231127183840-76ac6878050a // indirect
	golang.org/x/net v0.25.0 // indirect
	golang.org/x/sys v0.20.0 // indirect
	golang.org/x/text v0.16.0 // indirect
	gopkg.in/yaml.v3 v3.0.1 // indirect
)
